2022-11-21 09:25:48,-,XY000008,KyawZayarWin
2022-11-22 15:39:37,-,AEO000001,KyawZayarWin
2022-11-22 15:39:37,-,AEO000002,KyawZayarWin
2022-11-22 15:39:37,-,AEO000003,KyawZayarWin
2022-11-22 15:39:37,-,AEO000004,KyawZayarWin
2022-11-22 15:39:38,-,AEO000005,KyawZayarWin
2022-11-22 15:39:38,-,AEO000006,KyawZayarWin
2022-11-22 15:39:38,-,AEO000007,KyawZayarWin
2022-11-22 15:39:38,-,AEO000008,KyawZayarWin
2022-11-22 15:39:39,-,AEO000009,KyawZayarWin
2022-11-22 15:40:10,-,AEO000010,KyawZayarWin
2022-11-22 15:41:54,-,AEO000020,KyawZayarWin
2022-11-29 09:26:12,-,SS0000001,KyawZayarWin
2022-12-02 10:53:38,PG014243,YKA00001,KyawZayarWin
2022-12-02 10:53:41,PG014243,YKA00001,KyawZayarWin
2022-12-02 10:53:57,PG014243,YKA00001,KyawZayarWin
2022-12-02 15:54:56,-,ROYAL-10000097391,KhattarHlaing
2022-12-02 15:54:56,-,ROYAL-10000097392,KhattarHlaing
2022-12-02 15:54:56,-,ROYAL-10000097393,KhattarHlaing
2022-12-02 15:54:56,-,ROYAL-10000097394,KhattarHlaing
2022-12-02 15:54:56,-,ROYAL-10000097395,KhattarHlaing
2022-12-02 15:54:57,-,ROYAL-10000097396,KhattarHlaing
2022-12-02 15:54:57,-,ROYAL-10000097397,KhattarHlaing
2022-12-02 15:54:57,-,ROYAL-10000097398,KhattarHlaing
