2022-11-21 09:21:10,44,XY000001,PG003920,KyawZayarWin
2022-11-21 09:21:10,44,XY000002,PG003920,KyawZayarWin
2022-11-21 09:21:28,44,XY000003,PG003921,KyawZayarWin
2022-11-21 09:21:28,44,XY000004,PG003921,KyawZayarWin
2022-11-21 09:24:51,14,XY000004,0,KyawZayarWin
2022-11-21 09:24:51,14,XY000005,PG003922,KyawZayarWin
2022-11-21 09:26:08,14,XY000008,PG003922 (DWI , Nov-21),KyawZayarWin
2022-11-21 09:26:11,14,XY000008,PG003922 (DWI , Nov-21),KyawZayarWin
2022-11-21 19:31:49,1,XYZ0000001,PG014209,KyawZayarWin
2022-11-21 19:31:50,1,XYZ0000002,PG014209,KyawZayarWin
2022-11-21 19:31:50,1,XYZ0000003,PG014209,KyawZayarWin
2022-11-22 09:18:30,44,XYZ000001,PG014213,KyawZayarWin
2022-11-22 09:18:31,44,XYZ000002,PG014213,KyawZayarWin
2022-11-22 09:18:31,44,XYZ000003,PG014213,KyawZayarWin
2022-11-22 09:18:32,44,XYZ000004,PG014213,KyawZayarWin
2022-11-22 09:18:32,44,XYZ000005,PG014213,KyawZayarWin
2022-11-22 09:18:33,44,XYZ000006,PG014213,KyawZayarWin
2022-11-22 09:18:33,44,XYZ000007,PG014213,KyawZayarWin
2022-11-22 09:18:34,44,XYZ000008,PG014213,KyawZayarWin
2022-11-22 09:18:34,44,XYZ000009,PG014213,KyawZayarWin
2022-11-22 09:18:35,44,XYZ000010,PG014213,KyawZayarWin
2022-11-22 09:32:49,1,XYZ000010,0,KyawZayarWin
2022-11-22 09:32:49,1,XYZ000012,0,KyawZayarWin
2022-11-22 09:32:49,1,XYZ000013,0,KyawZayarWin
2022-11-22 09:32:49,1,XYZ000014,0,KyawZayarWin
2022-11-22 09:32:49,1,XYZ000015,0,KyawZayarWin
2022-11-22 09:32:50,1,XYZ000016,0,KyawZayarWin
2022-11-22 09:32:50,1,XYZ000017,0,KyawZayarWin
2022-11-22 09:32:50,1,XYZ000018,0,KyawZayarWin
2022-11-22 09:32:50,1,XYZ000019,0,KyawZayarWin
2022-11-22 09:32:50,1,XYZ000020,0,KyawZayarWin
2022-11-22 09:39:09,1,XYZ000010,0,KyawZayarWin
2022-11-22 09:39:09,1,XYZ000012,0,KyawZayarWin
2022-11-22 09:39:10,1,XYZ000011,0,KyawZayarWin
2022-11-22 09:39:10,1,XYZ000013,0,KyawZayarWin
2022-11-22 09:39:11,1,XYZ000014,0,KyawZayarWin
2022-11-22 09:39:11,1,XYZ000015,0,KyawZayarWin
2022-11-22 09:39:12,1,XYZ000016,0,KyawZayarWin
2022-11-22 09:39:12,1,XYZ000017,0,KyawZayarWin
2022-11-22 09:39:13,1,XYZ000018,0,KyawZayarWin
2022-11-22 09:39:13,1,XYZ000019,0,KyawZayarWin
2022-11-22 09:39:14,1,XYZ000020,0,KyawZayarWin
2022-11-22 09:50:49,1,XYZ000001,PG014214,KyawZayarWin
2022-11-22 09:50:49,1,XYZ000002,PG014214,KyawZayarWin
2022-11-22 09:50:49,1,XYZ000003,PG014214,KyawZayarWin
2022-11-22 09:50:49,1,XYZ000004,PG014214,KyawZayarWin
2022-11-22 09:50:49,1,XYZ000005,PG014214,KyawZayarWin
2022-11-22 09:50:49,1,XYZ000006,PG014214,KyawZayarWin
2022-11-22 09:50:49,1,XYZ000007,PG014214,KyawZayarWin
2022-11-22 09:50:49,1,XYZ000008,PG014214,KyawZayarWin
2022-11-22 09:50:49,1,XYZ000009,PG014214,KyawZayarWin
2022-11-22 09:50:49,1,XYZ000010,PG014214,KyawZayarWin
2022-11-22 09:54:53,1,XYZ000001,PG014215,KyawZayarWin
2022-11-22 09:54:54,1,XYZ000002,PG014215,KyawZayarWin
2022-11-22 09:54:54,1,XYZ000003,PG014215,KyawZayarWin
2022-11-22 09:54:54,1,XYZ000004,PG014215,KyawZayarWin
2022-11-22 09:54:54,1,XYZ000005,PG014215,KyawZayarWin
2022-11-22 09:54:54,1,XYZ000006,PG014215,KyawZayarWin
2022-11-22 09:54:54,1,XYZ000007,PG014215,KyawZayarWin
2022-11-22 09:54:54,1,XYZ000008,PG014215,KyawZayarWin
2022-11-22 09:54:54,1,XYZ000009,PG014215,KyawZayarWin
2022-11-22 09:54:54,1,XYZ000010,PG014215,KyawZayarWin
2022-11-22 09:55:45,1,XYZ000001,PG014216,KyawZayarWin
2022-11-22 09:56:11,1,XYZ000001,PG014217,KyawZayarWin
2022-11-22 09:56:31,1,XYZ000001,PG014218,KyawZayarWin
2022-11-22 09:56:31,1,XYZ000002,PG014218,KyawZayarWin
2022-11-22 09:56:31,1,XYZ000003,PG014218,KyawZayarWin
2022-11-22 09:56:39,1,XYZ000001,PG014219,KyawZayarWin
2022-11-22 09:56:58,1,XYZ000001,PG014220,KyawZayarWin
2022-11-22 09:59:41,1,XYZ000001,0,KyawZayarWin
2022-11-22 10:05:44,1,XYZ000001,0,KyawZayarWin
2022-11-22 10:06:27,1,XYZ000011,0,KyawZayarWin
2022-11-22 10:08:20,1,XYZ000011,0,KyawZayarWin
2022-11-22 10:15:11,1,XYZ000011,0,KyawZayarWin
2022-11-22 10:16:31,1,XYZ000011,0,KyawZayarWin
2022-11-22 10:18:40,1,XYZ000011,PG014221,KyawZayarWin
2022-11-22 10:20:49,44,WYZ000010,PG014222,KyawZayarWin
2022-11-22 10:20:49,44,WYZ000011,PG014222,KyawZayarWin
2022-11-22 10:20:50,44,WYZ000012,PG014222,KyawZayarWin
2022-11-22 10:20:50,44,WYZ000013,PG014222,KyawZayarWin
2022-11-22 10:20:50,44,WYZ000014,PG014222,KyawZayarWin
2022-11-22 10:20:50,44,WYZ000015,PG014222,KyawZayarWin
2022-11-22 10:20:50,44,WYZ000016,PG014222,KyawZayarWin
2022-11-22 10:20:51,44,WYZ000017,PG014222,KyawZayarWin
2022-11-22 10:20:51,44,WYZ000018,PG014222,KyawZayarWin
2022-11-22 10:20:51,44,WYZ000019,PG014222,KyawZayarWin
2022-11-22 10:20:51,44,WYZ000020,PG014222,KyawZayarWin
2022-11-22 10:22:24,44,WYZ000001,PG014223,KyawZayarWin
2022-11-22 10:22:24,44,WYZ000002,PG014223,KyawZayarWin
2022-11-22 10:22:25,44,WYZ000003,PG014223,KyawZayarWin
2022-11-22 10:22:25,44,WYZ000004,PG014223,KyawZayarWin
2022-11-22 10:22:25,44,WYZ000005,PG014223,KyawZayarWin
2022-11-22 10:22:25,44,WYZ000006,PG014223,KyawZayarWin
2022-11-22 10:22:25,44,WYZ000007,PG014223,KyawZayarWin
2022-11-22 10:22:26,44,WYZ000008,PG014223,KyawZayarWin
2022-11-22 10:22:26,44,WYZ000009,PG014223,KyawZayarWin
2022-11-22 10:22:26,44,WYZ000010,PG014223,KyawZayarWin
2022-11-22 15:44:47,1,AEO000020,PG014224,KyawZayarWin
2022-11-22 15:44:48,1,AEO000021,PG014224,KyawZayarWin
2022-11-22 15:44:48,1,AEO000023,PG014224,KyawZayarWin
2022-11-22 15:44:49,1,AEO000024,PG014224,KyawZayarWin
2022-11-22 15:44:50,1,AEO000025,PG014224,KyawZayarWin
2022-11-22 15:44:50,1,AEO000026,PG014224,KyawZayarWin
2022-11-22 15:44:51,1,AEO000027,PG014224,KyawZayarWin
2022-11-22 15:44:51,1,AEO000028,PG014224,KyawZayarWin
2022-11-22 15:44:52,1,AEO000029,PG014224,KyawZayarWin
2022-11-22 15:44:52,1,AEO000030,PG014224,KyawZayarWin
2022-11-22 15:46:28,1,AEO0000020,0,KyawZayarWin
2022-11-22 15:46:29,1,AEO0000021,0,KyawZayarWin
2022-11-22 15:46:29,1,AEO0000022,0,KyawZayarWin
2022-11-22 15:46:30,1,AEO0000023,0,KyawZayarWin
2022-11-22 15:46:30,1,AEO0000024,0,KyawZayarWin
2022-11-22 15:46:31,1,AEO0000025,0,KyawZayarWin
2022-11-22 15:46:31,1,AEO0000026,0,KyawZayarWin
2022-11-22 15:46:32,1,AEO0000027,0,KyawZayarWin
2022-11-22 15:46:32,1,AEO0000028,0,KyawZayarWin
2022-11-22 15:46:33,1,AEO0000029,0,KyawZayarWin
2022-11-22 15:46:33,1,AEO0000030,0,KyawZayarWin
2022-11-22 15:57:33,1,AEO000011,PG014226,KyawZayarWin
2022-11-22 15:57:33,1,AEO000012,PG014226,KyawZayarWin
2022-11-22 15:57:33,1,AEO000013,PG014226,KyawZayarWin
2022-11-22 15:57:34,1,AEO000014,PG014226,KyawZayarWin
2022-11-22 15:57:34,1,AEO000015,PG014226,KyawZayarWin
2022-11-22 15:57:34,1,AEO000016,PG014226,KyawZayarWin
2022-11-22 15:57:34,1,AEO000017,PG014226,KyawZayarWin
2022-11-22 15:57:34,1,AEO000018,PG014226,KyawZayarWin
2022-11-22 15:57:34,1,AEO000019,PG014226,KyawZayarWin
2022-11-22 15:57:35,1,AEO000020,PG014226,KyawZayarWin
2022-11-22 16:06:57,1,AEO000020,0,KyawZayarWin
2022-11-22 16:06:57,1,AEO000021,0,KyawZayarWin
2022-11-22 16:06:57,1,AEO000023,0,KyawZayarWin
2022-11-22 16:06:58,1,AEO000024,0,KyawZayarWin
2022-11-22 16:06:58,1,AEO000025,0,KyawZayarWin
2022-11-22 16:06:58,1,AEO000026,0,KyawZayarWin
2022-11-22 16:06:58,1,AEO000027,0,KyawZayarWin
2022-11-22 16:06:59,1,AEO000028,0,KyawZayarWin
2022-11-22 16:06:59,1,AEO000029,0,KyawZayarWin
2022-11-22 16:06:59,1,AEO000030,0,KyawZayarWin
2022-11-28 12:12:18,,AAA99999993,,KyawZayarWin
2022-11-28 12:12:36,,AAA99999993,,KyawZayarWin
2022-11-28 12:13:19,,AAA99999993,,KyawZayarWin
2022-11-29 09:39:49,1,SS0000021,PG014233,KyawZayarWin
2022-11-29 09:39:50,1,SS0000020,PG014233,KyawZayarWin
2022-11-29 09:39:50,1,SS0000019,PG014233,KyawZayarWin
2022-11-29 09:39:50,1,SS0000018,PG014233,KyawZayarWin
2022-11-29 09:39:50,1,SS0000017,PG014233,KyawZayarWin
2022-11-29 09:39:51,1,SS0000016,PG014233,KyawZayarWin
2022-11-29 09:39:51,1,SS0000015,PG014233,KyawZayarWin
2022-11-29 09:39:51,1,SS0000014,PG014233,KyawZayarWin
2022-11-29 09:39:52,1,SS0000013,PG014233,KyawZayarWin
2022-11-29 09:39:52,1,SS0000012,PG014233,KyawZayarWin
2022-11-29 09:39:52,1,SS0000011,PG014233,KyawZayarWin
2022-11-29 09:39:53,1,SS0000010,PG014233,KyawZayarWin
2022-11-29 09:39:53,1,SS0000009,PG014233,KyawZayarWin
2022-11-29 09:39:53,1,SS0000008,PG014233,KyawZayarWin
2022-11-29 09:39:53,1,SS0000007,PG014233,KyawZayarWin
2022-11-29 09:39:54,1,SS0000006,PG014233,KyawZayarWin
2022-11-29 09:39:54,1,SS0000005,PG014233,KyawZayarWin
2022-11-29 09:39:54,1,SS0000004,PG014233,KyawZayarWin
2022-11-29 09:39:55,1,SS0000003,PG014233,KyawZayarWin
2022-11-29 09:39:55,1,SS0000002,PG014233,KyawZayarWin
2022-11-29 10:07:01,1,SS0000001,PG014235,KyawZayarWin
2022-11-29 10:07:57,1,SS0000001,0,KyawZayarWin
2022-11-29 10:08:04,1,SS0000002,0,KyawZayarWin
2022-11-29 10:08:17,1,AEI00020,PG014236,KyawZayarWin
2022-11-29 10:10:15,1,AEI00019,PG014237,KyawZayarWin
2022-11-29 10:10:15,1,AEI00018,PG014237,KyawZayarWin
2022-11-29 10:10:16,1,AEI00017,PG014237,KyawZayarWin
2022-11-29 10:10:16,1,AEI00016,PG014237,KyawZayarWin
2022-11-29 10:10:16,1,AEI00015,PG014237,KyawZayarWin
2022-11-29 10:10:16,1,AEI00014,PG014237,KyawZayarWin
2022-11-29 10:10:16,1,AEI00013,PG014237,KyawZayarWin
2022-11-29 10:10:17,1,AEI00012,PG014237,KyawZayarWin
2022-11-29 10:10:17,1,AEI00011,PG014237,KyawZayarWin
2022-11-29 10:10:17,1,AEI00010,PG014237,KyawZayarWin
2022-11-29 10:10:17,1,AEI00009,PG014237,KyawZayarWin
2022-11-29 10:10:17,1,AEI00008,PG014237,KyawZayarWin
2022-11-29 10:10:18,1,AEI00007,PG014237,KyawZayarWin
2022-11-29 10:10:18,1,AEI00006,PG014237,KyawZayarWin
2022-11-29 10:10:18,1,AEI00005,PG014237,KyawZayarWin
2022-11-29 10:10:18,1,AEI00004,PG014237,KyawZayarWin
2022-11-29 10:10:18,1,AEI00003,PG014237,KyawZayarWin
2022-11-29 10:10:19,1,AEI00002,PG014237,KyawZayarWin
2022-11-29 10:10:19,1,AEI00001,PG014237,KyawZayarWin
2022-11-29 10:13:41,102,RR000005,PG014237 (YGN , Nov-29),KyawZayarWin
2022-11-29 10:17:06,102,JJ000001,PG014237 (YGN , Nov-29),KyawZayarWin
2022-12-02 11:50:17,1,SQL000001,PG014247,KyawZayarWin
2022-12-02 11:52:02,109,MD000001,PG014248,KyawZayarWin
2022-12-02 11:52:13,109,MD000003,PG014248 (HGU , Dec-02),KyawZayarWin
2022-12-02 14:01:01,44,YET00001,PG014252,KyawZayarWin
2022-12-02 14:01:01,44,YET00002,PG014252,KyawZayarWin
2022-12-02 14:41:01,44,SP000001,PG014259,KyawZayarWin
2022-12-02 14:41:02,44,SP000002,PG014259,KyawZayarWin
2022-12-02 14:41:02,44,SP000003,PG014259,KyawZayarWin
